"1","auger.josephine@huet.org","8c53ea3b3a14ffb6d24884643b2b3430","ROLE_USER,ROLE_ADMIN","2020-03-18 23:30:51","false"
"2","berger.nicole@orange.fr","5ed139b495cb2e95011841e35e39bda7","ROLE_USER,ROLE_ADMIN","2020-03-29 09:14:30","true"
"3","timothee.garcia@tiscali.fr","6d8c35e84fb064e12f030bc226c9b7f0","ROLE_USER","2021-01-03 18:11:09","true"
"4","picard.zacharie@blondel.com","a4062b5b75ca816cf42acc6d1ad96bba","ROLE_ADMIN","2020-07-27 09:12:58","false"
"5","sabine35@tele2.fr","be0dcde9aa3a0283caea6766469dde58","ROLE_USER,ROLE_ADMIN","2020-07-06 16:51:07","false"
"6","isaac.mace@masson.fr","96c3436cd84c1e4285fea833d76278bf","ROLE_USER,ROLE_ADMIN","2020-07-13 22:17:26","false"
"7","mloiseau@orange.fr","3db409646854e6d615a655fa6261f8c0","ROLE_USER,ROLE_ADMIN","2021-01-01 04:04:24","false"
"8","qimbert@maurice.fr","0f3e77969846931e8658ed82fd206afb","ROLE_USER","2020-12-06 05:10:03","false"
"9","julie.laroche@gmail.com","7803560f8f88149841a8ece443adf311","ROLE_ADMIN","2020-01-22 01:45:10","false"
"10","alexandre18@dbmail.com","292ec7fcfaf8ca5047ee40e0ba28ed14","ROLE_ADMIN","2020-10-23 08:24:31","true"
"11","dchauvet@becker.fr","59b96b21d9107fffb9f799314c3eb17b","ROLE_USER,ROLE_ADMIN","2020-04-13 20:46:04","false"
"12","guy94@guyot.com","24c7d146a120430e52f53b1664f9816f","ROLE_USER,ROLE_ADMIN","2020-11-18 13:58:31","false"
"13","stephanie.guilbert@free.fr","253bf4da8e5da7dbe719e7d9ea762a6f","ROLE_USER","2020-10-04 01:24:44","false"
"14","wdupuy@orange.fr","5449be2012f9cb9e0075014d3d73c4d9","ROLE_USER","2020-08-11 20:32:17","true"
"15","louis89@ifrance.com","7cb641de9bebe879f8de9f1b996a7a01","ROLE_USER","2020-02-13 16:02:08","false"
"16","lebrun.alexandria@club-internet.fr","c3de28739fe306d124c0bba751f2e150","ROLE_ADMIN","2020-02-02 06:43:01","false"
"17","marthe63@leroux.fr","75806b71de6cb30cf7fc7912d0ba2bba","ROLE_USER","2020-02-28 00:14:59","false"
"18","laure.fontaine@morin.fr","e99986dc3756833d0bae43256c44757e","ROLE_USER,ROLE_ADMIN","2020-05-06 15:11:03","true"
"19","gregoire88@live.com","839a4d0fc21b98adf87b48d854f98b42","ROLE_USER,ROLE_ADMIN","2020-01-13 21:51:27","true"
"20","laetitia13@gmail.com","d81638fb6e914b44922a3aada49f3c4b","ROLE_USER,ROLE_ADMIN","2020-04-28 00:31:13","false"
"21","xauger@dbmail.com","50b478523c60e3cc2a449ece5f1ab835","ROLE_ADMIN","2020-04-21 00:09:33","true"
"22","xriviere@leblanc.net","1c070e4e785ef2b6919efd86737cacca","ROLE_USER,ROLE_ADMIN","2020-06-19 14:43:28","true"
"23","michaud.daniel@hotmail.fr","49fb400f9593023b0de53fbe4f2c67af","ROLE_USER,ROLE_ADMIN","2020-03-12 17:14:24","true"
"24","bernadette.delmas@hotmail.fr","964d72b54527915d66ed04d3e29a2891","ROLE_USER,ROLE_ADMIN","2021-01-02 00:33:00","false"
"25","manon06@gmail.com","b09940dd4ef27d045640c921e28a81f1","ROLE_ADMIN","2020-06-10 07:27:58","false"
"26","bonneau.thibaut@dbmail.com","8d50f45dd915f8b88c35b50436e7f975","ROLE_USER,ROLE_ADMIN","2020-08-28 12:37:25","true"
"27","tguerin@bouygtel.fr","4dee0947380eb5cea2619cc09dd11d3d","ROLE_USER","2020-05-14 12:45:47","true"
"28","georges.germain@orange.fr","147665ac99e81adbafbb0caffbc9db88","ROLE_USER,ROLE_ADMIN","2020-03-09 06:15:06","false"
"29","tanguy.colette@laposte.net","a6b6dd420a6eaf7efb3634c18a425e3f","ROLE_USER,ROLE_ADMIN","2020-02-24 11:24:50","false"
"30","maurice74@faivre.com","b6fbd1de809caf69be99a3544a1a59a5","ROLE_ADMIN","2020-08-23 14:23:51","true"
"31","alex06@devaux.fr","a38cd56ba5eb91bd6cb8bc41469f9161","ROLE_USER,ROLE_ADMIN","2020-10-31 16:53:33","true"
"32","dumont.guillaume@orange.fr","f92a85afea34120b00e3fd33b972a550","ROLE_USER,ROLE_ADMIN","2020-06-27 09:11:36","false"
"33","noemi.dumas@club-internet.fr","997ef54cd5b96970b1a4eb73341839ce","ROLE_ADMIN","2020-03-18 19:19:00","false"
"34","marine.neveu@noos.fr","64b8ec6ef95d84480a42b8e9957951ac","ROLE_ADMIN","2020-08-28 20:56:05","true"
"35","edouard.caron@dupont.com","cff5a262b850d148d44668d3c2909d65","ROLE_USER","2020-05-22 09:02:53","true"
"36","georges09@orange.fr","c47861d3649b8bdb84e16a0df397bce5","ROLE_USER,ROLE_ADMIN","2020-06-20 05:02:00","false"
"37","pchartier@morel.fr","f5f3aa1175f6700547492215f446ae3a","ROLE_ADMIN","2020-08-31 23:18:32","true"
"38","leblanc.nath@merle.fr","c214e99e2a580c3a5badf7456f71d99a","ROLE_ADMIN","2020-10-07 22:42:25","false"
"39","yves.gilles@gregoire.org","e240392351ee856af08167e366e76206","ROLE_USER,ROLE_ADMIN","2020-02-07 17:24:29","false"
"40","francoise68@tiscali.fr","3a1e140a5e35cc7f3dd90bf0c6476263","ROLE_ADMIN","2020-03-07 01:44:27","false"
"41","pleroux@noos.fr","4865f81e9bc23bddbb99f9ef15cbb2e4","ROLE_USER,ROLE_ADMIN","2020-01-26 03:24:33","false"
"42","aime.guilbert@laposte.net","1fbc4651e473d4c89a16963bce679710","ROLE_ADMIN","2020-09-01 21:17:59","false"
"43","oauger@deoliveira.net","99a5a7648e2e760072478efd3293db26","ROLE_USER","2020-07-04 20:27:15","true"
"44","elodie48@tiscali.fr","58de1322b016194e7c770634cf7188a9","ROLE_USER","2020-07-07 05:09:26","false"
"45","gabriel.marion@gmail.com","e708a00a151bec2f242536afa72e714e","ROLE_ADMIN","2020-03-15 11:27:06","false"
"46","whamel@bouygtel.fr","4ef0912425875ef924569faf2223bd79","ROLE_ADMIN","2020-06-11 00:28:28","false"
"47","edouard87@peltier.com","b0741d7360ba9fa5e05c1c37ea17f7fd","ROLE_USER","2020-12-27 06:14:52","true"
"48","ychevalier@texier.org","0f63ac72ca0a8dec6fbfd3107773b673","ROLE_USER,ROLE_ADMIN","2020-10-01 15:46:08","false"
"49","tmathieu@roy.com","31c72fc4899e4bf20e698b6259086dc1","ROLE_USER","2020-06-06 09:50:55","false"
"50","qmartineau@lemaitre.com","ac5866bd95f5bffa1f9835fa8de364df","ROLE_USER,ROLE_ADMIN","2020-05-26 23:50:09","true"
"51","garcia.michelle@julien.net","e3538735b114452f915f9e9302782cf2","ROLE_USER,ROLE_ADMIN","2021-01-03 16:09:57","false"
"52","joubert.rene@tessier.com","297e1a40e9588d243a1469134f1aa477","ROLE_USER","2020-03-26 23:07:13","false"
"53","tristan.laine@leclerc.com","0f9f82e02aef3d3f3a4ba4d5c0218179","ROLE_ADMIN","2020-10-21 22:13:02","false"
"54","lamy.alex@laposte.net","b3174fdc8c72cee7dabb4e1ebf1519e0","ROLE_ADMIN","2020-07-26 23:47:08","true"
"55","adrienne.wagner@live.com","b2a20cbda09bde02f5450889e1d197fb","ROLE_ADMIN","2020-02-26 08:39:14","true"
"56","gauthier.andree@picard.org","889ca39be0be782f2ddce11bb81bffb9","ROLE_USER,ROLE_ADMIN","2020-03-07 18:59:14","false"
"57","qduval@mahe.com","4cbf713e410bb0812035f55e8a4511c5","ROLE_ADMIN","2020-04-16 20:37:17","true"
"58","paul.devaux@free.fr","29c9c32dfa23382ac9473f0db1939a81","ROLE_ADMIN","2020-05-29 01:48:12","false"
"59","celine58@wanadoo.fr","0426c26cbffa95710c570a0601eb7777","ROLE_USER","2020-08-29 22:53:12","true"
"60","parent.francoise@gallet.com","7afdb4c85cc749373b79a44adfe24012","ROLE_USER,ROLE_ADMIN","2020-07-03 12:17:39","false"
"61","mahe.benjamin@rey.fr","60f4b602554a3e0a80a00d2daa2e5e5b","ROLE_ADMIN","2020-10-08 10:21:25","true"
"62","genevieve.colin@hotmail.fr","a8ff5ff4d007859e577876a8fe2325cc","ROLE_ADMIN","2020-07-30 04:43:23","true"
"63","claude.tessier@dbmail.com","bf58659b2f98ca834a36044c3520610d","ROLE_USER,ROLE_ADMIN","2020-02-26 12:23:24","false"
"64","paulette78@fournier.fr","9f55f7e765997947fb149a29021b9fb5","ROLE_USER","2020-12-08 21:11:44","false"
"65","vidal.jacques@rodrigues.fr","9c930089bd360979dbfcc87cd7ad29f6","ROLE_USER,ROLE_ADMIN","2020-04-03 02:25:47","true"
"66","veronique.rey@free.fr","b3e0f194f856c4cdf2e8cf4e15655e1c","ROLE_USER,ROLE_ADMIN","2020-11-23 01:56:52","false"
"67","noemi98@besson.org","112f1579e4c68435199bbd4b8c38fbdf","ROLE_ADMIN","2020-08-31 23:24:55","false"
"68","edith.germain@gilles.org","6fc64f012e3cd1382bf08c03f5bd4ef4","ROLE_ADMIN","2020-11-12 19:02:31","true"
"69","christiane94@francois.fr","4690961d1af209c59b82602bee36115e","ROLE_ADMIN","2020-04-23 22:26:19","true"
"70","chevalier.luce@gilbert.fr","091c93346c72c09302848d32ae25908f","ROLE_USER,ROLE_ADMIN","2020-02-06 23:42:09","false"
"71","weiss.roger@bouygtel.fr","47d0df88f6e0ea25bca7443f02563e45","ROLE_USER,ROLE_ADMIN","2020-09-28 13:33:41","false"
"72","umenard@joly.fr","10bf01fa33c62a175e8837fcebb41bdf","ROLE_USER","2020-04-27 04:53:32","true"
"73","etienne.thierry@torres.fr","60930bf547985d3d3542247885daf32f","ROLE_USER,ROLE_ADMIN","2020-10-27 06:51:28","true"
"74","wdelorme@martin.net","77bc472dcc00a59c3296832b82f08a98","ROLE_USER,ROLE_ADMIN","2020-08-31 19:00:54","false"
"75","nicolas29@lebrun.org","396eee36a8cbd11a4bc9c43725a99510","ROLE_USER,ROLE_ADMIN","2020-07-23 21:13:46","false"
"76","dasilva.sophie@lucas.fr","6599e9ee8cc4731c385271929117304a","ROLE_ADMIN","2020-02-11 03:12:43","true"
"77","ileblanc@laroche.com","505261f56fbc8578a148d0871070c26d","ROLE_USER,ROLE_ADMIN","2020-05-21 21:42:17","false"
"78","andre.luc@live.com","c3aae6283d94d8a5b39937148e5b9616","ROLE_USER,ROLE_ADMIN","2020-03-03 01:17:58","true"
"79","marcel52@fouquet.fr","055fa1beec765a88ff526763dba3e25d","ROLE_USER,ROLE_ADMIN","2020-08-28 15:06:07","false"
"80","adam.madeleine@david.fr","213fd8db42ba50cd95517fc4b7a3a9ac","ROLE_USER,ROLE_ADMIN","2020-05-18 13:52:08","false"
"81","laure.hubert@pottier.fr","321e2445eb5e5faf6ea36946b16ec009","ROLE_ADMIN","2020-11-23 08:47:28","true"
"82","brun.emmanuel@tele2.fr","7abcf2aaff37c0c1c85d92d918af5fbe","ROLE_USER,ROLE_ADMIN","2020-02-07 23:50:25","true"
"83","guy.regnier@laposte.net","44a9e500ef4ec7a9211a31b0c796377a","ROLE_USER,ROLE_ADMIN","2020-11-26 18:33:42","false"
"84","raymond63@ferreira.com","58459e5946ada7cf0dc8b143bf407fd2","ROLE_USER,ROLE_ADMIN","2020-01-09 04:24:18","false"
"85","aurelie76@fabre.fr","c97ef15e6b3aadd0200c7fb3ee2aac2c","ROLE_USER,ROLE_ADMIN","2020-03-29 10:59:13","false"
"86","iturpin@orange.fr","c74cdad44a8f27a1ed207039254c0132","ROLE_USER","2021-01-06 12:16:51","true"
"87","stephane.girard@sfr.fr","b6c4d0921f037ae702ac0d9722ad4eb3","ROLE_ADMIN","2020-08-01 04:55:57","true"
"88","cpotier@riou.com","a71d805967540feeac1434568fe8b63f","ROLE_USER,ROLE_ADMIN","2020-04-10 18:05:13","false"
"89","xavier.schneider@maurice.net","a5f17bce861115ed5c679ce42b9ded0a","ROLE_ADMIN","2020-05-14 17:32:33","false"
"90","gautier.henri@besson.com","c664bac5b81f54aa69b898e644aa713e","ROLE_USER,ROLE_ADMIN","2020-12-10 12:25:37","true"
"91","anastasie63@free.fr","382681c2cc61b1eb11d98e1345096b0e","ROLE_USER,ROLE_ADMIN","2020-05-22 01:27:17","true"
"92","egarcia@diallo.com","eabbbadd54cbc0c42a5c7ff68cbf0cad","ROLE_USER,ROLE_ADMIN","2020-11-24 13:58:09","true"
"93","jourdan.jerome@jacquet.com","752bf5c8b91c64388661bd3429c18c21","ROLE_USER,ROLE_ADMIN","2020-12-06 00:30:22","true"
"94","sletellier@ifrance.com","0110bb7ee389456916e931e269b18176","ROLE_USER,ROLE_ADMIN","2020-01-22 01:26:58","false"
"95","gerard.alex@free.fr","fb0ff597dc490073084ac3b2543a60c5","ROLE_ADMIN","2020-03-18 00:50:19","false"
"96","laetitia.leconte@ifrance.com","15ea4fe809154aa34f0884ffa90d8395","ROLE_USER,ROLE_ADMIN","2020-08-19 06:36:01","false"
"97","umaury@blondel.fr","b6d7f6ad0a1cb74dac0ba3a71cc68691","ROLE_USER","2020-02-12 10:34:43","true"
"98","bpascal@gmail.com","d90837f644f5637e317c17a99624787f","ROLE_USER","2020-11-03 06:19:24","false"
"99","qbenard@remy.fr","5d9ff7a4951d16ae5969dfa9a652c92d","ROLE_USER","2020-07-03 21:58:53","false"
"100","michelle.bonneau@laposte.net","3dee8eaf24b7cb6542039a2cdf798ebc","ROLE_USER,ROLE_ADMIN","2020-09-29 05:35:02","false"
"101","paul.maillard@bernier.com","3304f42f5794c1ef6d2894bb018c9532","ROLE_USER,ROLE_ADMIN","2020-12-27 07:16:22","true"
"102","andree.guillet@voila.fr","8752147a039abc0aaf9877dad81ef7dd","ROLE_USER,ROLE_ADMIN","2020-01-19 04:01:49","false"
"103","bertrand.blanchard@dbmail.com","6c91d768485025b9c8e1a20dee7cfac2","ROLE_ADMIN","2020-08-08 03:53:01","false"
"104","augustin06@ferreira.fr","9e2dd264a09778487df4022282642aba","ROLE_USER,ROLE_ADMIN","2020-04-16 22:51:19","true"
"105","benard.dorothee@nicolas.org","2e7f254d52fefd86b367768c74fb2c45","ROLE_USER,ROLE_ADMIN","2020-06-02 16:07:44","true"
"106","jacob.emile@becker.com","58c35bb69ca3e3224dc1f6486f258493","ROLE_USER,ROLE_ADMIN","2020-11-30 14:53:06","true"
"107","bpicard@peltier.net","1cd02809a6dfcedb70fd662f44ee5e63","ROLE_USER,ROLE_ADMIN","2020-05-18 15:06:25","true"
"108","aurelie21@collin.fr","7305d5c12002ff2bd8956fff5efbb5f6","ROLE_ADMIN","2020-09-21 15:59:06","true"
"109","wleger@pruvost.fr","3f71ccdbfa7c4f8f9aafa01a880eee48","ROLE_ADMIN","2020-09-23 16:39:39","false"
"110","penelope.gauthier@club-internet.fr","6e5839d82a413112fb4af3a870e15e8f","ROLE_ADMIN","2021-01-08 04:04:59","false"
"111","petitjean.madeleine@maillet.com","2f09cb4936af8a78bc39c66b32a0d75a","ROLE_USER,ROLE_ADMIN","2020-08-25 15:42:37","false"
"112","stephane.labbe@maillard.com","1b0944daa9366bae2e05faafef137194","ROLE_USER","2020-06-09 17:07:34","true"
"113","eric.picard@club-internet.fr","8b076caeffa3c593d7d5545c024dc694","ROLE_USER","2020-06-23 22:08:46","false"
"114","marcelle.arnaud@hamel.com","85c317a2553ce7585cf9cf1bb41f7f54","ROLE_USER","2020-11-04 01:36:14","true"
